<?xml version="1.0" encoding="utf-8"?>
<!-- Generator: Adobe Illustrator 15.1.0, SVG Export Plug-In . SVG Version: 6.00 Build 0)  -->
<!DOCTYPE svg PUBLIC "-//W3C//DTD SVG 1.1//EN" "http://www.w3.org/Graphics/SVG/1.1/DTD/svg11.dtd">
<svg version="1.1" id="Layer_1" xmlns="http://www.w3.org/2000/svg" xmlns:xlink="http://www.w3.org/1999/xlink" x="0px" y="0px"
	 width="42.203px" height="113px" viewBox="0 0 42.203 113" enable-background="new 0 0 42.203 113" xml:space="preserve">
<g>
	<path d="M40.68,112.388c0.292,0,0.586-0.089,0.842-0.274c0.66-0.477,0.816-1.41,0.352-2.086L3.41,55.248L41.848,2.782
		c0.485-0.661,0.354-1.599-0.292-2.095c-0.646-0.496-1.562-0.362-2.047,0.299L0.433,54.323c-0.38,0.52-0.39,1.23-0.024,1.761
		l39.076,55.67C39.77,112.167,40.221,112.388,40.68,112.388z"/>
</g>
</svg>
